Bayesian Checking of topic models
…
Session info

Introduction

Bayesian checking of topic models has been proposed by Mimno and Blei (2011) as a way of study how well a model fits data and to identify potential areas of model improvements. For more details, see Mimno and Blei (2011) here.

We start out by loading a trained topic model with 50 topics on the State of the Union Addresses.

library(tidytopics)
library(dplyr)
library(ggplot2)
data(sotu50)
sotu50

## # A tibble: 680,947 × 3
##      doc            type topic
##    <int>          <fctr> <int>
## 1      1 fellow-citizens    11
## 2      1          senate    11
## 3      1           house    11
## 4      1 representatives    11
## 5      2         meeting    10
## 6      2            feel    33
## 7      2    satisfaction    10
## 8      2          repeat    10
## 9      2 congratulations    33
## 10     2       favorable    10
## # ... with 680,937 more rows

The next step is to extract the top terms. In this example we use the standard metric, the probability of a type given a topic, to identify the top 10 terms by topic. See ?top_term for details and other key term extractions methods.

top_keys <- top_terms(sotu50, "type_probability")
top_keys

## # A tibble: 500 × 3
##          type topic type_probability
##        <fctr> <int>            <dbl>
## 1       canal     1       0.03618711
## 2      states     1       0.03206826
## 3     pacific     1       0.03074434
## 4      panama     1       0.02559576
## 5      united     1       0.02191821
## 6   nicaragua     1       0.01912327
## 7     isthmus     1       0.01838776
## 8  government     1       0.01765225
## 9     central     1       0.01721094
## 10    america     1       0.01632833
## # ... with 490 more rows
…
To calculate the instantaneous mutual information (\(IMI(w,g|k)\)) we use the imi() function. We can calulate the IMI for all terms, but subseting to the most interesting terms speed up the computations. As with MI, the default grouping is documents (\(IMI(w,D|k)\)).

observed_imi <- imi(state = sotu50, w = top_keys)
observed_imi

## # A tibble: 500 × 4
##          type topic      imi type_probability
##        <fctr> <int>    <dbl>            <dbl>
## 1       canal     1 1.685923       0.03618711
## 2      states     1 1.367125       0.03206826
## 3     pacific     1 1.468617       0.03074434
## 4      panama     1 1.746758       0.02559576
## 5      united     1 1.633095       0.02191821
## 6   nicaragua     1 2.126230       0.01912327
## 7     isthmus     1 2.267863       0.01838776
## 8  government     1 1.890140       0.01765225
## 9     central     1 1.948742       0.01721094
## 10    america     1 1.943587       0.01632833
## # ... with 490 more rows
…
Based on this large difference between observed and replicated MI we can calculate the deviance of each topic as the standardized distance between the replicated values and the true value using the function mi_deviance().

mi_dev <- mi_deviance(observed_mi, replicated_mi)
mi_dev

## # A tibble: 50 × 1
##    deviance
##       <dbl>
## 1  42.63371
## 2  20.20937
## 3  28.91349
## 4  43.22549
## 5  32.33601
## 6  46.18441
## 7  19.71067
## 8  24.97147
## 9  31.02902
## 10 14.59754
## # ... with 40 more rows
…
