Introduction to the tidytopic package
…
The purpose is to have a way of handling the often very large corpuses in a simple and effective way and make use of the sparsity for topic model analysis.

Example

The basic structure is the tidy_topic_state. As an example a topic model with 50 topics (one Gibbs draw) has been included for the State of the Union Addresses. Each document is a paragraph of the State of The Union Addresses.

library(tidytopics)
library(tidytext)
library(dplyr)

data("sotu50")
sotu50

## # A tibble: 680,947 × 3
##      doc            type topic
##    <int>          <fctr> <int>
## 1      1 fellow-citizens    11
## 2      1          senate    11
## 3      1           house    11
## 4      1 representatives    11
## 5      2         meeting    10
## 6      2            feel    33
## 7      2    satisfaction    10
## 8      2          repeat    10
## 9      2 congratulations    33
## 10     2       favorable    10
## # ... with 680,937 more rows

is.tidy_topic_state(sotu50)

## [1] TRUE

Based on this topic model state we can easily do post-processing analyses, such as the top terms per topic.

top_terms(sotu50, "type_probability")

## # A tibble: 500 × 3
##          type topic type_probability
##        <fctr> <int>            <dbl>
## 1       canal     1       0.03618711
## 2      states     1       0.03206826
## 3     pacific     1       0.03074434
## 4      panama     1       0.02559576
## 5      united     1       0.02191821
## 6   nicaragua     1       0.01912327
## 7     isthmus     1       0.01838776
## 8  government     1       0.01765225
## 9     central     1       0.01721094
## 10    america     1       0.01632833
## # ... with 490 more rows

See ?top_terms for other ways of

We can also easily compute the type topic matrix \(n_w\) or the document topic matrix \(n_d\) in tidy format.

nw <- topic_type_matrix(sotu50)
nw

## # A tibble: 56,549 × 3
##    topic            type     n
##    <int>          <fctr> <int>
## 1      8 fellow-citizens     1
## 2     10 fellow-citizens    32
## 3     11 fellow-citizens    64
## 4     25 fellow-citizens    10
## 5     33 fellow-citizens    12
## 6      7          senate    15
## 7     11          senate   291
## 8     18          senate    24
## 9     26          senate    26
## 10    39          senate   217
## # ... with 56,539 more rows

nd <- doc_topic_matrix(sotu50)
nd

## # A tibble: 109,178 × 3
##      doc topic     n
##    <int> <int> <int>
## 1      1    11     4
## 2      2     8     3
## 3      2    10     9
## 4      2    33     7
## 5      2    46     1
## 6      3     8    19
## 7      3    10    22
## 8      4     7    12
## 9      4    10    15
## 10     4    12     1
## # ... with 109,168 more rows
…
Mallet state files

Currently the package handles importing of state files from Mallet. To fit a model with mallet see the hompage or use the R package mallet to fit a model. An introduction to fit a topic model with R can be found here.

The following mallet state file is not a part of this package (due to the size of the file). But to run this code you can download the file here.

The statefile contain the topic indicatorstates, and the hyperparameters \(\alpha\) and \(\beta\).

my_sotu <- read_mallet_statefile("sotu50.txt.gz")
alpha <- read_mallet_statefile("sotu50.txt.gz", type = "alpha")
beta <- read_mallet_statefile("sotu50.txt.gz", type = "beta")

my_sotu

## # A tibble: 680,947 × 4
##      doc   pos            type topic
##    <int> <int>          <fctr> <int>
## 1      1     1 fellow-citizens    11
## 2      1     2          senate    11
## 3      1     3           house    11
## 4      1     4 representatives    11
## 5      2     1         meeting    10
## 6      2     2            feel    33
## 7      2     3    satisfaction    10
## 8      2     4          repeat    10
## 9      2     5 congratulations    33
## 10     2     6       favorable    10
## # ... with 680,937 more rows
…
